Clase 4 - Introducción al uso y aplicación de paquetes estadísticos para el tratamiento de fuentes de información en investigación social cuantitativa
…
ipumsr: permite la manipulación y descarga de archivos del proyecto IPUMS, que contiene, entre otras fuentes, microdatos censales de distintos países.

eph: permite la descarga de datos de la Encuesta Permanente de Hogares (EPH) de Argentina. Al mismo tiempo facilita la construcción de paneles, pools de datos y estimaciones de pobreza.

PNADcIBGE: permite la descarga de datos de la Pesquisa Nacional por Amostra de Domicílios (PNAD) de Brasil.

2 Elementos de la base datos

2.1 Clases de objetos

Una vez abiertas las bases de datos, el siguiente paso que solemos dar es abrirla y observar como está dispuesta la matriz de datos. En el caso de RStudio, a diferencia de SPSS, las bases de datos se mantienen ocultas en el ambiente de trabajo. Para visualizarlas, podemos hacer click en el objeto específico, o si queremos un resumen, podemos escribir el nombre del objeto en la consola o en el script.

censo_hogares

# A tibble: 12,197,647 × 26
   redcode provincia departamento vivienda_ref_id hogar_ref_id  nhog   H05   H06
   <chr>   <chr>     <chr>                  <dbl>        <dbl> <dbl> <dbl> <dbl>
 1 020010… CIUDAD A… 02001                      1            1     1     1     4
 2 020010… CIUDAD A… 02001                      1            2     2     1     1
 3 020010… CIUDAD A… 02001                      1            3     4     1     3
 4 020010… CIUDAD A… 02001                      1            4     6     1     1
 5 020010… CIUDAD A… 02001                      2            5     1     1     1
 6 020010… CIUDAD A… 02001                      2            6     2     1     3
 7 020010… CIUDAD A… 02001                      2            7     3     1     2
 8 020010… CIUDAD A… 02001                      2            8     5     1     4
 9 020010… CIUDAD A… 02001                      2            9     7     1     1
10 020010… CIUDAD A… 02001                      3           10     1     1     2
# ℹ 12,197,637 more rows
# ℹ 18 more variables: H07 <dbl>, H08 <dbl>, H09 <dbl>, H10 <dbl>, H11 <dbl>,
#   H12 <dbl>, H13 <dbl>, H14 <dbl>, H15 <dbl>, H16 <dbl>, H19A <dbl>,
#   H19B <dbl>, H19C <dbl>, H19D <dbl>, PROP <dbl>, INDHAC <dbl>,
#   TOTPERS <dbl>, ALGUNBI <dbl>
…
