Clase 7 - Introducción al uso y aplicación de paquetes estadísticos para el tratamiento de fuentes de información en investigación social cuantitativa
…
censo_personas %>% 
  filter(condact != 0) %>% # quitamos los casos que no aplican a la variable condición de actividad
  group_by(provincia_f, condact) %>% # agrupamos los casos por provincia y condición de actividad
  summarise(suma = n()) %>% # sumamos los casos
  group_by(provincia_f) %>% # ahora agrupamos solo por provincia
  summarise(tasa_desocupacion = (suma[condact == 2] / (suma[condact == 1] + suma[condact == 2])) * 100) %>% # calculamos la tasa de desocupación
  arrange(-tasa_desocupacion) # ordenamos de mayor a menor tasa de desocupación

`summarise()` has grouped output by 'provincia_f'. You can override using the
`.groups` argument.

# A tibble: 24 × 2
   provincia_f         tasa_desocupacion
   <fct>                           <dbl>
 1 Tucumán                          7.89
 2 San Juan                         7.81
 3 Salta                            7.63
 4 San Luis                         7.20
 5 Catamarca                        7.10
 6 Mendoza                          6.94
 7 Neuquén                          6.29
 8 Río Negro                        6.26
 9 Santiago del Estero              6.20
10 La Rioja                         6.13
# ℹ 14 more rows
…
